{
  "uuid": "e4e50129-16be-4e3b-941e-988289e1d490",
  "lastMigration": 27,
  "name": "Prueba",
  "endpointPrefix": "",
  "latency": 0,
  "port": 3000,
  "hostname": "",
  "folders": [],
  "routes": [
    {
      "uuid": "71775b4a-20f8-43a3-afa4-c51683a4885c",
      "type": "http",
      "documentation": "",
      "method": "get",
      "endpoint": "prueba",
      "responses": [
        {
          "uuid": "ac12032a-9d26-4d47-9901-b57e3eb6336f",
          "body": "{\r\n  \"results\": [\r\n    {\r\n      \"name\": \"Pelota de fútbol\",\r\n      \"categoria\": \"Deportes\",\r\n      \"color\": \"Blanco y negro\",\r\n      \"price\": 12.99,\r\n      \"descripcion\": \"Pelota de fútbol clásica, ideal para jugar en el parque o en el patio trasero.\",\r\n      \"main_image\": \"https://www.shutterstock.com/image-vector/football-ball-on-white-background-600w-1915613371.jpg\",\r\n      \"visitas\": 256\r\n    },\r\n    {\r\n      \"name\": \"Puzzle de animales\",\r\n      \"categoria\": \"Educativos\",\r\n      \"color\": \"Multicolor\",\r\n      \"price\": 9.99,\r\n      \"descripcion\": \"Puzzle de 50 piezas con divertidos animales para estimular el desarrollo cognitivo de los niños.\",\r\n      \"main_image\": \"https://cdn.ravensburger.de/images/produktseiten/1024/12891.jpg\",\r\n      \"visitas\": 183\r\n    },\r\n    {\r\n      \"name\": \"Muñeca de peluche\",\r\n      \"categoria\": \"Juguetes de peluche\",\r\n      \"color\": \"Rosa\",\r\n      \"price\": 19.99,\r\n      \"descripcion\": \"Adorable muñeca de peluche con vestido rosa, perfecta para abrazar y dormir.\",\r\n      \"image\": \"https://f.fcdn.app/imgs/d90f84/elreydelentretenimiento.com/erdeuy/cc03/webp/catalogo/4973590053003_lady_1/1500-1500/peluche-cry-babies-gigantes-40cm-100-original-muneca-lady.jpg\",\r\n      \"visitas\": 342\r\n    }\r\n  ]\r\n}\r\n",
          "latency": 0,
          "statusCode": 200,
          "label": "",
          "headers": [],
          "bodyType": "INLINE",
          "filePath": "",
          "databucketID": "",
          "sendFileAsBody": false,
          "rules": [],
          "rulesOperator": "OR",
          "disableTemplating": false,
          "fallbackTo404": false,
          "default": true
        }
      ],
      "enabled": true,
      "responseMode": null
    },
    {
      "uuid": "9ca00efb-33a3-4803-806f-a01ef2d4c664",
      "type": "http",
      "documentation": "",
      "method": "get",
      "endpoint": "api/tienda/productos/lista",
      "responses": [
        {
          "uuid": "c1df5b06-05cd-4826-baa9-219eb972793b",
          "body": "{\r\n  \"count\": 18,\r\n  \"next\": \"http://servicios.neunapp.com/api/tienda/productos/lista/?format=json&page=2\",\r\n  \"previous\": null,\r\n  \"results\": [\r\n    {\r\n      \"id\": 11,\r\n      \"colors\": [\r\n        {\r\n          \"id\": 7,\r\n          \"name\": \"Negro\",\r\n          \"value\": \"#2f364\"\r\n        },\r\n        {\r\n          \"id\": 8,\r\n          \"name\": \"Blanco\",\r\n          \"value\": \"#ecf0f1\"\r\n        }\r\n      ],\r\n      \"category\": [\r\n        {\r\n          \"id\": 3,\r\n          \"name\": \"Deportes\",\r\n          \"name_unique\": \"deportes\"\r\n        }\r\n      ],\r\n      \"main_image\": \"https://servicios.neunapp.com/media/producto/ba01.jpg\",\r\n      \"second_image\": \"https://servicios.neunapp.com/media/producto/ba02.jpg\",\r\n      \"third_image\": \"https://servicios.neunapp.com/media/producto/ba04.webp\",\r\n      \"name\": \"Balon de Futbol Classic Weston #4\",\r\n      \"price\": \"15.000\",\r\n      \"description\": \"<h2><strong>Caracter&iacute;sticas destacadas</strong></h2>\\r\\n\\r\\n<ul>\\r\\n\\t<li>Bal&oacute;n de F&uacute;tbol cl&aacute;sico.</li>\\r\\n\\t<li>Tama&ntilde;o #4.</li>\\r\\n\\t<li>Para uso profesional o recreativo</li>\\r\\n\\t<li>Material:&nbsp;CUERO SINTETICO PU.</li>\\r\\n\\t<li>Peso: 380-400&nbsp;gramos</li>\\r\\n\\t<li>Diametro: 208mm</li>\\r\\n\\t<li>Circunferencia: 64-66cm</li>\\r\\n</ul>\",\r\n      \"publicado\": true,\r\n      \"visits\": 16129\r\n    },\r\n    {\r\n      \"id\": 8,\r\n      \"colors\": [\r\n        {\r\n          \"id\": 5,\r\n          \"name\": \"Rojo\",\r\n          \"value\": \"#c23616\"\r\n        },\r\n        {\r\n          \"id\": 7,\r\n          \"name\": \"Negro\",\r\n          \"value\": \"#2f364\"\r\n        }\r\n      ],\r\n      \"category\": [\r\n        {\r\n          \"id\": 1,\r\n          \"name\": \"Audio y Video\",\r\n          \"name_unique\": \"audiovisual\"\r\n        }\r\n      ],\r\n      \"main_image\": \"https://servicios.neunapp.com/media/producto/nin01.jpg\",\r\n      \"second_image\": \"https://servicios.neunapp.com/media/producto/nin02.jpg\",\r\n      \"third_image\": \"https://servicios.neunapp.com/media/producto/nin03.jpg\",\r\n      \"name\": \"Nueva Consola Nintendo Switch 2019\",\r\n      \"price\": \"400.000\",\r\n      \"description\": \"<h2><span style=\\\"color:#e67e22\\\"><strong>Caracter&iacute;sticas destacadas</strong></span></h2>\\r\\n\\r\\n<ul>\\r\\n\\t<li>Nuevo Modelo. N&uacute;mero de modelo HAC 001</li>\\r\\n\\t<li>Dos accesorios de correa Joy Con una empu&ntilde;adura Joy Con, un cable HDMI</li>\\r\\n\\t<li>Adaptador de CA Nintendo Switch</li>\\r\\n\\t<li>Procesador mas eficiente</li>\\r\\n\\t<li>Mejor durabilidad en los Joy-Con</li>\\r\\n\\t<li>40% mas de bateria que la Nintendo Switch normal.</li>\\r\\n\\t<li>Tiempo de uso extendido: de 6 a 9 horas de juego.</li>\\r\\n\\t<li>Solo se emite boleta de venta</li>\\r\\n</ul>\",\r\n      \"publicado\": true,\r\n      \"visits\": 774\r\n    },\r\n    {\r\n      \"id\": 4,\r\n      \"colors\": [\r\n        {\r\n          \"id\": 7,\r\n          \"name\": \"Negro\",\r\n          \"value\": \"#2f364\"\r\n        },\r\n        {\r\n          \"id\": 8,\r\n          \"name\": \"Blanco\",\r\n          \"value\": \"#ecf0f1\"\r\n        }\r\n      ],\r\n      \"category\": [\r\n        {\r\n          \"id\": 2,\r\n          \"name\": \"Celulares y tabletas\",\r\n          \"name_unique\": \"telefonía\"\r\n        }\r\n      ],\r\n      \"main_image\": \"https://servicios.neunapp.com/media/producto/xi01.jpg\",\r\n      \"second_image\": \"https://servicios.neunapp.com/media/producto/xi02.jpg\",\r\n      \"third_image\": \"https://servicios.neunapp.com/media/producto/xi03.webp\",\r\n      \"name\": \"Combo Xiaomi Note 9 Pro 128 GB\",\r\n      \"price\": \"489.000\",\r\n      \"description\": \"<h2><span style=\\\"color:#e74c3c\\\"><strong>Caracter&iacute;sticas destacadas</strong></span></h2>\\r\\n\\r\\n<ul>\\r\\n\\t<li>Pantalla: 6.67&quot;, 1080 x 2400 pixelsProcesador: Snapdragon 720G 2.3GHz</li>\\r\\n\\t<li>RAM: 4GB/6GB</li>\\r\\n\\t<li>Almacenamiento: 64GB/128GB</li>\\r\\n\\t<li>Expansi&oacute;n: microSD</li>\\r\\n\\t<li>C&aacute;mara: Cu&aacute;druple, 64MP+8MP +2MP+2MP</li>\\r\\n\\t<li>Bater&iacute;a: 5020 mAh</li>\\r\\n\\t<li>OS: Android 10</li>\\r\\n\\t<li>Perfil: 8.8 mm</li>\\r\\n\\t<li>Peso: 209 g</li>\\r\\n</ul>\",\r\n      \"publicado\": true,\r\n      \"visits\": 495\r\n    },\r\n    {\r\n      \"id\": 1,\r\n      \"colors\": [\r\n        {\r\n          \"id\": 7,\r\n          \"name\": \"Negro\",\r\n          \"value\": \"#2f364\"\r\n        }\r\n      ],\r\n      \"category\": [\r\n        {\r\n          \"id\": 6,\r\n          \"name\": \"Relojes\",\r\n          \"name_unique\": \"relojes\"\r\n        }\r\n      ],\r\n      \"main_image\": \"https://servicios.neunapp.com/media/producto/reloc10.jpg\",\r\n      \"second_image\": \"https://servicios.neunapp.com/media/producto/reloj11.jpg\",\r\n      \"third_image\": \"https://servicios.neunapp.com/media/producto/reloj13.jpg\",\r\n      \"name\": \"Reloj Hombre militar deportivo Smael cronógrafo, calendario\",\r\n      \"price\": \"32.000\",\r\n      \"description\": \"<h2><span style=\\\"color:#e74c3c\\\"><strong>Caracter&iacute;sticas destacadas</strong></span></h2>\\r\\n\\r\\n<ul>\\r\\n\\t<li>Estilo deportivo militar</li>\\r\\n\\t<li>Muestra el tiempo preciso</li>\\r\\n\\t<li>Horario anal&oacute;gico y digital</li>\\r\\n\\t<li>Movimiento de cuarzo japon&eacute;s.</li>\\r\\n\\t<li>Resistentes a golpes y ca&iacute;das</li>\\r\\n\\t<li>Acu&aacute;tico ideal para nadar</li>\\r\\n\\t<li>Agujas luminosas en la oscuridad</li>\\r\\n\\t<li>Calendario completo</li>\\r\\n\\t<li>Con luz LED en los n&uacute;meros</li>\\r\\n\\t<li>Cron&oacute;grafo.</li>\\r\\n\\t<li>&nbsp;Alarma.</li>\\r\\n</ul>\",\r\n      \"publicado\": true,\r\n      \"visits\": 359\r\n    },\r\n    {\r\n      \"id\": 16,\r\n      \"colors\": [\r\n        {\r\n          \"id\": 7,\r\n          \"name\": \"Negro\",\r\n          \"value\": \"#2f364\"\r\n        }\r\n      ],\r\n      \"category\": [\r\n        {\r\n          \"id\": 4,\r\n          \"name\": \"Informática\",\r\n          \"name_unique\": \"informatca\"\r\n        },\r\n        {\r\n          \"id\": 7,\r\n          \"name\": \"Vídeo juegos\",\r\n          \"name_unique\": \"consolas\"\r\n        }\r\n      ],\r\n      \"main_image\": \"https://servicios.neunapp.com/media/producto/t01.jpg\",\r\n      \"second_image\": \"https://servicios.neunapp.com/media/producto/t02.jpg\",\r\n      \"third_image\": \"https://servicios.neunapp.com/media/producto/t03.jpg\",\r\n      \"name\": \"Teclado Mecánico de una mano Redragon K585RGB DITI\",\r\n      \"price\": \"45.000\",\r\n      \"description\": \"<h2><span style=\\\"color:#e67e22\\\"><strong>Caracter&iacute;sticas destacadas</strong></span></h2>\\r\\n\\r\\n<ul>\\r\\n\\t<li>Teclado mec&aacute;nico de una mano RGB</li>\\r\\n\\t<li>Tipo de switches: Intercambiables Outemu Brown MK2, t&aacute;ctil con click audible, fuerza de actuaci&oacute;n 50g</li>\\r\\n\\t<li>Caract esp. externas: 7 teclas macro extras, reposamu&ntilde;ecas magn&eacute;tico, sistema antisalpicaduras y teclas antiborrado (doble inyecci&oacute;n)</li>\\r\\n\\t<li>Software: S&iacute; (configurar specs, RGB, macros, multimedia y perfiles).</li>\\r\\n</ul>\",\r\n      \"publicado\": true,\r\n      \"visits\": 245\r\n    },\r\n    {\r\n      \"id\": 17,\r\n      \"colors\": [\r\n        {\r\n          \"id\": 2,\r\n          \"name\": \"Azul\",\r\n          \"value\": \"#273c75\"\r\n        },\r\n        {\r\n          \"id\": 7,\r\n          \"name\": \"Negro\",\r\n          \"value\": \"#2f364\"\r\n        }\r\n      ],\r\n      \"category\": [\r\n        {\r\n          \"id\": 4,\r\n          \"name\": \"Informática\",\r\n          \"name_unique\": \"informatca\"\r\n        },\r\n        {\r\n          \"id\": 7,\r\n          \"name\": \"Vídeo juegos\",\r\n          \"name_unique\": \"consolas\"\r\n        }\r\n      ],\r\n      \"main_image\": \"https://servicios.neunapp.com/media/producto/teclado03-min.jpg\",\r\n      \"second_image\": \"https://servicios.neunapp.com/media/producto/teclado02.webp\",\r\n      \"third_image\": \"https://servicios.neunapp.com/media/producto/reclado01.webp\",\r\n      \"name\": \"TECLADO GAMER HALION TIGER HA-K760\",\r\n      \"price\": \"33.990\",\r\n      \"description\": \"<h2><span style=\\\"color:#e67e22\\\"><strong>Caracter&iacute;sticas destacadas</strong></span></h2>\\r\\n\\r\\n<ul>\\r\\n\\t<li>Multimedia / Internet/ Gamers</li>\\r\\n\\t<li>Color: Negro</li>\\r\\n\\t<li>Disponible con conector USB 2.0</li>\\r\\n\\t<li>10 teclas r&aacute;pidas para el acceso f&aacute;cil de Internet y Multimedia</li>\\r\\n\\t<li>5 teclas programables para juegos</li>\\r\\n\\t<li>Iluminacion LED rainbow</li>\\r\\n\\t<li>Teclas antiborrado</li>\\r\\n\\t<li>Waterproof</li>\\r\\n\\t<li>Compatible con Windows 2000/XP/ Win 7/8/10</li>\\r\\n</ul>\",\r\n      \"publicado\": true,\r\n      \"visits\": 166\r\n    },\r\n    {\r\n      \"id\": 10,\r\n      \"colors\": [\r\n        {\r\n          \"id\": 5,\r\n          \"name\": \"Rojo\",\r\n          \"value\": \"#c23616\"\r\n        }\r\n      ],\r\n      \"category\": [\r\n        {\r\n          \"id\": 3,\r\n          \"name\": \"Deportes\",\r\n          \"name_unique\": \"deportes\"\r\n        }\r\n      ],\r\n      \"main_image\": \"https://servicios.neunapp.com/media/producto/balon01-min.jpg\",\r\n      \"second_image\": \"https://servicios.neunapp.com/media/producto/balon03-min.jpg\",\r\n      \"third_image\": \"https://servicios.neunapp.com/media/producto/balon02.jpg\",\r\n      \"name\": \"Pelota de basquet basket Peso Medida Oficial\",\r\n      \"price\": \"12.000\",\r\n      \"description\": \"<h2><strong>Caracter&iacute;sticas destacadas</strong></h2>\\r\\n\\r\\n<p>Buen agarre y tacto blandoMaterial: goma resistentetalla 7Dise&ntilde;o 9 pa&ntilde;osuso: outdoorPeso y medida oficialmarca: winstarincluye aguja y malla</p>\",\r\n      \"publicado\": true,\r\n      \"visits\": 117\r\n    },\r\n    {\r\n      \"id\": 6,\r\n      \"colors\": [\r\n        {\r\n          \"id\": 7,\r\n          \"name\": \"Negro\",\r\n          \"value\": \"#2f364\"\r\n        }\r\n      ],\r\n      \"category\": [\r\n        {\r\n          \"id\": 1,\r\n          \"name\": \"Audio y Video\",\r\n          \"name_unique\": \"audiovisual\"\r\n        }\r\n      ],\r\n      \"main_image\": \"https://servicios.neunapp.com/media/producto/audifono01-min.jpg\",\r\n      \"second_image\": \"https://servicios.neunapp.com/media/producto/audifono02-min.jpg\",\r\n      \"third_image\": \"https://servicios.neunapp.com/media/producto/audifono02.webp\",\r\n      \"name\": \"Audifonos Inalambricos Bluetooth Klip Xtreme\",\r\n      \"price\": \"25.000\",\r\n      \"description\": \"<h2><span style=\\\"color:#e74c3c\\\"><strong>Caracter&iacute;sticas destacadas</strong></span></h2>\\r\\n\\r\\n<p>Caracter&iacute;sticas</p>\\r\\n\\r\\n<ul>\\r\\n\\t<li>Una m&aacute;scara impermeable que le permite sumergir la c&aacute;mara para deporte acu&aacute;tico</li>\\r\\n\\t<li>Resistente al agua hasta la profundidad de agua de 30 metros</li>\\r\\n\\t<li>&nbsp;Funci&oacute;n de c&aacute;mara fotogr&aacute;fica</li>\\r\\n\\t<li>&nbsp;Una pantalla de alta definici&oacute;n de 2 &quot;que muestra y reproduce los videos fascinantes</li>\\r\\n\\t<li>grabadas mientras se carga</li>\\r\\n\\t<li>&nbsp;Bater&iacute;a desmontable f&aacute;cil de cambio</li>\\r\\n\\t<li>&nbsp;Grabaci&oacute;n de video mientras se est&aacute; cargando</li>\\r\\n\\t<li>&nbsp;12 lente de gran angular MPx HD</li>\\r\\n\\t<li>&nbsp;La funci&oacute;n de salida HDMI de alta definici&oacute;n</li>\\r\\n\\t<li>&nbsp;Tarjeta micro SD / TF hasta 32G m&aacute;ximo (tarjeta del TF no incluida)</li>\\r\\n\\t<li>&nbsp;Con soporte para un registro f&aacute;cil y agradable</li>\\r\\n\\t<li>&nbsp;Capaz de tomar fotograf&iacute;as y grabar v&iacute;deos</li>\\r\\n\\t<li>&nbsp;Mini tama&ntilde;o y peso ligero para llevar conveniente</li>\\r\\n\\t<li>&nbsp;Alimentaci&oacute;n por bater&iacute;a de litio recargable (1050mAh)</li>\\r\\n</ul>\\r\\n\\r\\n<p>Especificaciones</p>\\r\\n\\r\\n<ul>\\r\\n\\t<li>&nbsp;</li>\\r\\n\\t<li>Pantalla 2&rdquo; Pulgadas LCD</li>\\r\\n\\t<li>Resoluci&oacute;n de Foto: 12 Megapixeles</li>\\r\\n\\t<li>Resoluci&oacute;n de Video: 4K (3840x2160) / 1080p (1920 x 1080) /</li>\\r\\n\\t<li>720p (1280 x 720)</li>\\r\\n\\t<li>&nbsp;Duraci&oacute;n de la bater&iacute;a 4K (50 minutos) / 1080p (1:30 hrs)</li>\\r\\n\\t<li>&nbsp;Formato de fotos JPGE</li>\\r\\n\\t<li>&nbsp;Formato de video MOV</li>\\r\\n\\t<li>&nbsp;Ranuras MicroSD, Micro HDMI, MicroUSB</li>\\r\\n\\t<li>&nbsp;Distancia de grabaci&oacute;n de sonido: 5 metros</li>\\r\\n\\t<li>&nbsp;Distancia de grabaci&oacute;n de video: 15 metros</li>\\r\\n\\t<li>&nbsp;Wifi OS: Android and IOS</li>\\r\\n\\t<li>&nbsp;Lente Angular: 170&ordm;</li>\\r\\n\\t<li>&nbsp;Memoria: Micro SD expansi&oacute;n m&aacute;ximo de 32GB</li>\\r\\n\\t<li>&nbsp;Acuatica Resistente 30 metros bajo el agua</li>\\r\\n\\t<li>&nbsp;Bater&iacute;a: 1050mAh</li>\\r\\n\\t<li>&nbsp;Dimensiones 59.3 x 24.6 x 41.1 mm</li>\\r\\n</ul>\",\r\n      \"publicado\": true,\r\n      \"visits\": 80\r\n    },\r\n    {\r\n      \"id\": 5,\r\n      \"colors\": [\r\n        {\r\n          \"id\": 7,\r\n          \"name\": \"Negro\",\r\n          \"value\": \"#2f364\"\r\n        }\r\n      ],\r\n      \"category\": [\r\n        {\r\n          \"id\": 2,\r\n          \"name\": \"Celulares y tabletas\",\r\n          \"name_unique\": \"telefonía\"\r\n        }\r\n      ],\r\n      \"main_image\": \"https://servicios.neunapp.com/media/producto/celu01.jpg\",\r\n      \"second_image\": \"https://servicios.neunapp.com/media/producto/celu02.webp\",\r\n      \"third_image\": \"https://servicios.neunapp.com/media/producto/celu03.png\",\r\n      \"name\": \"Celular básico Nokia 106 versión 2020\",\r\n      \"price\": \"22.000\",\r\n      \"description\": \"<h2><span style=\\\"color:#e74c3c\\\"><strong>Caracter&iacute;sticas destacadas</strong></span></h2>\\r\\n\\r\\n<ul>\\r\\n\\t<li>Marca: Nokia</li>\\r\\n\\t<li>Modelo: Nokia 106</li>\\r\\n\\t<li>Memoria interna: 4 MB</li>\\r\\n\\t<li>Memoria RAM: 4 MB</li>\\r\\n\\t<li>Compa&ntilde;&iacute;a telef&oacute;nica: Liberado</li>\\r\\n\\t<li>A&ntilde;o de lanzamiento: 2013</li>\\r\\n\\t<li>Peso: 74.2 g</li>\\r\\n\\t<li>Altura: 112.9 mm</li>\\r\\n\\t<li>Ancho: 47.5 mm</li>\\r\\n\\t<li>Profundidad: 14.9 mm</li>\\r\\n\\t<li>Tama&ntilde;o de la pantalla: 1.8 &quot;</li>\\r\\n\\t<li>Resoluci&oacute;n de la pantalla: 128 px x 160 px</li>\\r\\n\\t<li>P&iacute;xeles por pulgada: 114 ppi</li>\\r\\n\\t<li>Tecnolog&iacute;a de pantalla: TFT</li>\\r\\n\\t<li>Red: 2G</li>\\r\\n\\t<li>Cantidad de ranuras para tarjeta SIM1</li>\\r\\n\\t<li>Tama&ntilde;os de tarjeta SIM compatiblesMini-SIM</li>\\r\\n\\t<li>Velocidad del procesador: 1.8 GHz</li>\\r\\n\\t<li>Tipo de bater&iacute;a: Ion de litio</li>\\r\\n\\t<li>Capacidad de la bater&iacute;a: 800 mAh</li>\\r\\n\\t<li>Duraci&oacute;n de la bater&iacute;a en espera: 840 h</li>\\r\\n\\t<li>Tiempo de conversaci&oacute;n: 10 h</li>\\r\\n\\t<li>SE EMITE SOLO BOLETA</li>\\r\\n</ul>\",\r\n      \"publicado\": true,\r\n      \"visits\": 77\r\n    },\r\n    {\r\n      \"id\": 9,\r\n      \"colors\": [\r\n        {\r\n          \"id\": 2,\r\n          \"name\": \"Azul\",\r\n          \"value\": \"#273c75\"\r\n        },\r\n        {\r\n          \"id\": 3,\r\n          \"name\": \"Gris\",\r\n          \"value\": \"#dcdde1\"\r\n        },\r\n        {\r\n          \"id\": 7,\r\n          \"name\": \"Negro\",\r\n          \"value\": \"#2f364\"\r\n        }\r\n      ],\r\n      \"category\": [\r\n        {\r\n          \"id\": 7,\r\n          \"name\": \"Vídeo juegos\",\r\n          \"name_unique\": \"consolas\"\r\n        }\r\n      ],\r\n      \"main_image\": \"https://servicios.neunapp.com/media/producto/mando01.webp\",\r\n      \"second_image\": \"https://servicios.neunapp.com/media/producto/mando02.jpg\",\r\n      \"third_image\": \"https://servicios.neunapp.com/media/producto/mando03.webp\",\r\n      \"name\": \"Mando Ps4 Azul Camuflado Alta Calidad\",\r\n      \"price\": \"40.000\",\r\n      \"description\": \"<h2><span style=\\\"color:#e74c3c\\\"><strong>Caracter&iacute;sticas destacadas</strong></span></h2>\\r\\n\\r\\n<ul>\\r\\n\\t<li>Mando para PS4 Play Station 4</li>\\r\\n\\t<li>Compatible Alta Calidad para tu consola</li>\\r\\n\\t<li>Bater&iacute;a recargable incorporada</li>\\r\\n\\t<li>Puerto micro-USB, conector para auriculares est&eacute;reo</li>\\r\\n\\t<li>Conectividad inal&aacute;mbrica Bluetooth</li>\\r\\n\\t<li>Compatible para Consola PS4</li>\\r\\n</ul>\",\r\n      \"publicado\": true,\r\n      \"visits\": 76\r\n    },\r\n    {\r\n      \"id\": 7,\r\n      \"colors\": [\r\n        {\r\n          \"id\": 2,\r\n          \"name\": \"Azul\",\r\n          \"value\": \"#273c75\"\r\n        },\r\n        {\r\n          \"id\": 5,\r\n          \"name\": \"Rojo\",\r\n          \"value\": \"#c23616\"\r\n        },\r\n        {\r\n          \"id\": 7,\r\n          \"name\": \"Negro\",\r\n          \"value\": \"#2f364\"\r\n        }\r\n      ],\r\n      \"category\": [\r\n        {\r\n          \"id\": 1,\r\n          \"name\": \"Audio y Video\",\r\n          \"name_unique\": \"audiovisual\"\r\n        }\r\n      ],\r\n      \"main_image\": \"https://servicios.neunapp.com/media/producto/parlante03.webp\",\r\n      \"second_image\": \"https://servicios.neunapp.com/media/producto/parlante02.jpg\",\r\n      \"third_image\": \"https://servicios.neunapp.com/media/producto/parlante01.webp\",\r\n      \"name\": \"Sony Parlante portatil Bluetooh\",\r\n      \"price\": \"90.000\",\r\n      \"description\": \"<h2><strong><span style=\\\"color:#c0392b\\\">Caracter&iacute;sticas destacadas</span></strong></h2>\\r\\n\\r\\n<ul>\\r\\n\\t<li>&nbsp;EXTRA BASS&trade; para un sonido profundo e impactante&nbsp;</li>\\r\\n\\t<li>&nbsp;Dise&ntilde;o compacto y port&aacute;til&nbsp;</li>\\r\\n\\t<li>&nbsp;Resistente al agua y al polvo (calificaci&oacute;n IP67)</li>\\r\\n\\t<li>Hasta 16 horas de duraci&oacute;n de la bater&iacute;a&nbsp;</li>\\r\\n\\t<li>Se suministra con correa desmontable&nbsp;</li>\\r\\n\\t<li>&nbsp;Tipo de parlante rango completo</li>\\r\\n\\t<li>Tama&ntilde;o del parlante Parlante mono: 46 mm</li>\\r\\n\\t<li>&nbsp;Duraci&oacute;n de la bater&iacute;a Aprox. 16 h</li>\\r\\n\\t<li>Terminales de entrada y salida Miniconector est&eacute;reo (entrada), micro USB</li>\\r\\n\\t<li>&nbsp;Alcance de transmisi&oacute;n de frecuencia 20 Hz - 20.000 Hz (Frecuencia de muestreo de 44,1 kHz)</li>\\r\\n</ul>\",\r\n      \"publicado\": true,\r\n      \"visits\": 66\r\n    },\r\n    {\r\n      \"id\": 2,\r\n      \"colors\": [\r\n        {\r\n          \"id\": 3,\r\n          \"name\": \"Gris\",\r\n          \"value\": \"#dcdde1\"\r\n        },\r\n        {\r\n          \"id\": 7,\r\n          \"name\": \"Negro\",\r\n          \"value\": \"#2f364\"\r\n        }\r\n      ],\r\n      \"category\": [\r\n        {\r\n          \"id\": 2,\r\n          \"name\": \"Celulares y tabletas\",\r\n          \"name_unique\": \"telefonía\"\r\n        }\r\n      ],\r\n      \"main_image\": \"https://servicios.neunapp.com/media/producto/ga03-min.jpg\",\r\n      \"second_image\": \"https://servicios.neunapp.com/media/producto/ga02.webp\",\r\n      \"third_image\": \"https://servicios.neunapp.com/media/producto/ga01.webp\",\r\n      \"name\": \"Smartphone Samsung Galaxy S10+ Plus\",\r\n      \"price\": \"823.000\",\r\n      \"description\": \"<h2><span style=\\\"color:#e67e22\\\"><strong>Caracter&iacute;sticas destacadas</strong></span></h2>\\r\\n\\r\\n<ul>\\r\\n\\t<li>Pantalla: 6,4&quot; Dynamic AMOLED Touchscreen</li>\\r\\n\\t<li>Resoluci&oacute;n: 3040x 1440 pixeles</li>\\r\\n\\t<li>Procesador: Snapdragon 855</li>\\r\\n\\t<li>Almacenamiento: 128GB</li>\\r\\n\\t<li>Memoria RAM: 8GB</li>\\r\\n\\t<li>C&aacute;mara: Triple, 12 MP (f/1.5 y f/2.4)</li>\\r\\n\\t<li>C&aacute;mara Frontal: 10 MP (f/1.9)</li>\\r\\n\\t<li>Bater&iacute;a: 4001mAh (no extra&iacute;ble)</li>\\r\\n\\t<li>Sistema Operativo:&nbsp;Android 9.0 Pie</li>\\r\\n\\t<li>Dimensiones: 157.6 x 74.1 x 7.8 mm</li>\\r\\n\\t<li>Color: Negro</li>\\r\\n</ul>\",\r\n      \"publicado\": true,\r\n      \"visits\": 52\r\n    }\r\n  ]\r\n}",
          "latency": 0,
          "statusCode": 200,
          "label": "",
          "headers": [],
          "bodyType": "INLINE",
          "filePath": "",
          "databucketID": "",
          "sendFileAsBody": false,
          "rules": [],
          "rulesOperator": "OR",
          "disableTemplating": false,
          "fallbackTo404": false,
          "default": true
        }
      ],
      "enabled": true,
      "responseMode": null
    }
  ],
  "rootChildren": [
    {
      "type": "route",
      "uuid": "71775b4a-20f8-43a3-afa4-c51683a4885c"
    },
    {
      "type": "route",
      "uuid": "9ca00efb-33a3-4803-806f-a01ef2d4c664"
    }
  ],
  "proxyMode": false,
  "proxyHost": "",
  "proxyRemovePrefix": false,
  "tlsOptions": {
    "enabled": false,
    "type": "CERT",
    "pfxPath": "",
    "certPath": "",
    "keyPath": "",
    "caPath": "",
    "passphrase": ""
  },
  "cors": true,
  "headers": [
    {
      "key": "Content-Type",
      "value": "application/json"
    }
  ],
  "proxyReqHeaders": [
    {
      "key": "",
      "value": ""
    }
  ],
  "proxyResHeaders": [
    {
      "key": "",
      "value": ""
    }
  ],
  "data": []
}